{
	"content": [
		{
			"id": "053a81cc-56f3-4189-bae6-58f7a1c84fc4",
			"trackTitle": "Let Me Entertain You - Remastered 2011",
			"artists": [
				{
					"id": "3dce03ac-93bc-4696-a6d6-fa8a579e3913",
					"name": "Queen",
					"href": "https://open.spotify.com/artist/1dfeR4HaWDbWqFHLkxsg1d"
				}
			],
			"durationMs": 181693,
			"isrc": "GBUM71103322",
			"ean": null,
			"upc": null,
			"href": "https://open.spotify.com/track/00ITtxUozN0vifE2uYvtqn",
			"availableCountries": "AR,AU,AT,BE,BO,BR,BG,CL,CO,CR,CY,CZ,DK,DO,DE,EC,EE,SV,FI,FR,GR,GT,HN,HK,HU,IS,IE,IT,LV,LT,LU,MY,MT,MX,NL,NZ,NI,NO,PA,PY,PE,PH,PL,PT,SG,SK,ES,SE,CH,TW,TR,UY,GB,AD,LI,MC,ID,JP,TH,VN,RO,IL,ZA,SA,AE,BH,QA,OM,KW,EG,MA,DZ,TN,LB,JO,PS,IN,BY,KZ,MD,UA,AL,BA,HR,ME,MK,RS,SI,KR,BD,PK,LK,GH,KE,NG,TZ,UG,AG,AM,BS,BB,BZ,BT,BW,BF,CV,CW,DM,FJ,GM,GD,GW,GY,HT,JM,KI,LS,LR,MW,MV,ML,MH,FM,NA,NR,NE,PW,PG,WS,ST,SN,SC,SL,SB,KN,LC,VC,SR,TL,TO,TT,TV,AZ,BN,BI,KH,CM,TD,KM,GQ,SZ,GA,GN,KG,LA,MO,MR,MN,NP,RW,TG,UZ,ZW,BJ,MG,MU,MZ,AO,CI,DJ,ZM,CD,CG,IQ,LY,TJ,VE,XK",
			"popularity": 37
		},
		{
			"id": "4fc4f4c7-1975-4b61-b400-d71ebd891fe0",
			"trackTitle": "Under Pressure - Live At Milton Keynes Bowl / June 1982",
			"artists": [
				{
					"id": "3dce03ac-93bc-4696-a6d6-fa8a579e3913",
					"name": "Queen",
					"href": "https://open.spotify.com/artist/1dfeR4HaWDbWqFHLkxsg1d"
				}
			],
			"durationMs": 227426,
			"isrc": "GBCEE0400073",
			"ean": null,
			"upc": null,
			"href": "https://open.spotify.com/track/00PDJsPiPGttHWCjMxLQMU",
			"availableCountries": "AR,AU,AT,BE,BO,BR,BG,CL,CO,CR,CY,CZ,DK,DO,DE,EC,EE,SV,FI,FR,GR,GT,HN,HK,HU,IS,IE,IT,LV,LT,LU,MY,MT,MX,NL,NZ,NI,NO,PA,PY,PE,PH,PL,PT,SG,SK,ES,SE,CH,TW,TR,UY,GB,AD,LI,MC,ID,JP,TH,VN,RO,IL,ZA,SA,AE,BH,QA,OM,KW,EG,TN,LB,JO,PS,IN,BY,KZ,MD,UA,AL,BA,HR,ME,MK,RS,SI,KR,BD,PK,LK,GH,KE,NG,TZ,UG,AG,AM,BS,BB,BZ,BT,BW,BF,CV,CW,DM,FJ,GM,GD,GW,GY,HT,JM,KI,LS,LR,MW,MV,ML,MH,FM,NA,NR,NE,PW,PG,WS,ST,SN,SC,SL,SB,KN,LC,VC,SR,TL,TO,TT,TV,AZ,BN,BI,KH,CM,TD,KM,GQ,SZ,GA,GN,KG,LA,MO,MR,MN,NP,RW,TG,UZ,ZW,BJ,MG,MU,MZ,AO,CI,DJ,ZM,CD,CG,TJ,VE,XK",
			"popularity": 19
		},
		{
			"id": "522d0a0f-0753-4ce2-8b4d-a2aa74f1dd2a",
			"trackTitle": "I'm In Love With My Car - Live, European Tour / 1979",
			"artists": [
				{
					"id": "3dce03ac-93bc-4696-a6d6-fa8a579e3913",
					"name": "Queen",
					"href": "https://open.spotify.com/artist/1dfeR4HaWDbWqFHLkxsg1d"
				}
			],
			"durationMs": 121893,
			"isrc": "GBCEG0100026",
			"ean": null,
			"upc": null,
			"href": "https://open.spotify.com/track/01OkBP9VZeIxmtVkUNyGRe",
			"availableCountries": "AR,AU,AT,BE,BO,BR,BG,CL,CO,CR,CY,CZ,DK,DO,DE,EC,EE,SV,FI,FR,GR,GT,HN,HK,HU,IS,IE,IT,LV,LT,LU,MY,MT,MX,NL,NZ,NI,NO,PA,PY,PE,PH,PL,PT,SG,SK,ES,SE,CH,TW,TR,UY,GB,AD,LI,MC,ID,JP,TH,VN,RO,IL,ZA,SA,AE,BH,QA,OM,KW,EG,DZ,TN,LB,JO,PS,IN,BY,KZ,MD,UA,AL,BA,HR,ME,MK,RS,SI,KR,BD,PK,LK,GH,KE,NG,TZ,UG,AG,AM,BS,BB,BZ,BT,BW,BF,CV,CW,DM,FJ,GM,GD,GW,GY,HT,JM,KI,LS,LR,MW,MV,ML,MH,FM,NA,NR,NE,PW,PG,WS,ST,SN,SC,SL,SB,KN,LC,VC,SR,TL,TO,TT,TV,AZ,BN,BI,KH,CM,TD,KM,GQ,SZ,GA,GN,KG,LA,MO,MR,MN,NP,RW,TG,UZ,ZW,BJ,MG,MU,MZ,AO,CI,DJ,ZM,CD,CG,TJ,VE,XK",
			"popularity": 22
		},
		{
			"id": "dd8e6eec-c768-425b-84ae-ebe1cb6a2cd7",
			"trackTitle": "Now I'm Here (Reprise) - Live At The Montreal Forum / November 1981",
			"artists": [
				{
					"id": "3dce03ac-93bc-4696-a6d6-fa8a579e3913",
					"name": "Queen",
					"href": "https://open.spotify.com/artist/1dfeR4HaWDbWqFHLkxsg1d"
				}
			],
			"durationMs": 113106,
			"isrc": "GBCEE0700015",
			"ean": null,
			"upc": null,
			"href": "https://open.spotify.com/track/01PacJaIe9pbYiQErvjKy2",
			"availableCountries": "AD,AG,AR,AT,AU,BB,BE,BG,BO,BR,BS,BZ,CH,CL,CO,CR,CW,CY,CZ,DE,DK,DM,DO,EC,EE,ES,FI,FR,GB,GD,GR,GT,GY,HK,HN,HR,HT,HU,ID,IE,IL,IN,IS,IT,JM,JP,KN,LC,LI,LT,LU,LV,MC,MT,MX,MY,NI,NL,NO,NZ,PA,PE,PH,PL,PT,PY,RO,SE,SG,SI,SK,SV,TH,TR,TT,TW,UA,UY,VC,VN,ZA",
			"popularity": 10
		},
		{
			"id": "f12a640c-29b9-4a84-803a-cd18577b4625",
			"trackTitle": "Who Needs You - Remastered 2011",
			"artists": [
				{
					"id": "3dce03ac-93bc-4696-a6d6-fa8a579e3913",
					"name": "Queen",
					"href": "https://open.spotify.com/artist/1dfeR4HaWDbWqFHLkxsg1d"
				}
			],
			"durationMs": 186853,
			"isrc": "GBUM71103461",
			"ean": null,
			"upc": null,
			"href": "https://open.spotify.com/track/02lvTeAFIIsOd0wVNoRkQ5",
			"availableCountries": "AR,AU,AT,BE,BO,BR,BG,CL,CO,CR,CY,CZ,DK,DO,DE,EC,EE,SV,FI,FR,GR,GT,HN,HK,HU,IS,IE,IT,LV,LT,LU,MY,MT,MX,NL,NZ,NI,NO,PA,PY,PE,PH,PL,PT,SG,SK,ES,SE,CH,TW,TR,UY,GB,AD,LI,MC,ID,JP,TH,VN,RO,IL,ZA,SA,AE,BH,QA,OM,KW,EG,MA,DZ,TN,LB,JO,PS,IN,BY,KZ,MD,UA,AL,BA,HR,ME,MK,RS,SI,KR,BD,PK,LK,GH,KE,NG,TZ,UG,AG,AM,BS,BB,BZ,BT,BW,BF,CV,CW,DM,FJ,GM,GD,GW,GY,HT,JM,KI,LS,LR,MW,MV,ML,MH,FM,NA,NR,NE,PW,PG,WS,ST,SN,SC,SL,SB,KN,LC,VC,SR,TL,TO,TT,TV,AZ,BN,BI,KH,CM,TD,KM,GQ,SZ,GA,GN,KG,LA,MO,MR,MN,NP,RW,TG,UZ,ZW,BJ,MG,MU,MZ,AO,CI,DJ,ZM,CD,CG,IQ,LY,TJ,VE,XK",
			"popularity": 36
		},
		{
			"id": "256c49ab-12de-45c1-9b62-71d94b2a2672",
			"trackTitle": "Keep Yourself Alive (Reprise) - Live At The Rainbow, London / March 1974",
			"artists": [
				{
					"id": "3dce03ac-93bc-4696-a6d6-fa8a579e3913",
					"name": "Queen",
					"href": "https://open.spotify.com/artist/1dfeR4HaWDbWqFHLkxsg1d"
				}
			],
			"durationMs": 82915,
			"isrc": "GBUM71403197",
			"ean": null,
			"upc": null,
			"href": "https://open.spotify.com/track/02xSvk18vTRrQDL9I0f33M",
			"availableCountries": "AR,AU,AT,BE,BO,BR,BG,CL,CO,CR,CY,CZ,DK,DO,DE,EC,EE,SV,FI,FR,GR,GT,HN,HK,HU,IS,IE,IT,LV,LT,LU,MY,MT,MX,NL,NZ,NI,NO,PA,PY,PE,PH,PL,PT,SG,SK,ES,SE,CH,TW,TR,UY,GB,AD,LI,MC,ID,JP,TH,VN,RO,IL,ZA,SA,AE,BH,QA,OM,KW,EG,MA,DZ,TN,LB,JO,PS,IN,BY,KZ,MD,UA,AL,BA,HR,ME,MK,RS,SI,KR,PK,LK,GH,KE,NG,TZ,UG,AG,AM,BS,BB,BZ,BT,BW,BF,CV,CW,DM,FJ,GM,GD,GW,GY,JM,KI,LS,LR,MW,MV,ML,MH,FM,NA,NR,NE,PW,PG,WS,ST,SN,SC,SL,SB,KN,LC,VC,SR,TL,TO,TT,TV,AZ,BN,BI,KH,CM,TD,KM,GQ,SZ,GA,GN,KG,LA,MO,MR,MN,NP,RW,TG,UZ,ZW,BJ,MG,MU,MZ,AO,CI,DJ,ZM,CD,CG,IQ,LY,TJ,VE,XK",
			"popularity": 13
		},
		{
			"id": "91d927b3-c8ae-495a-bce2-e53f25847824",
			"trackTitle": "Drum Solo - Live At The Rainbow, London / March 1974",
			"artists": [
				{
					"id": "3dce03ac-93bc-4696-a6d6-fa8a579e3913",
					"name": "Queen",
					"href": "https://open.spotify.com/artist/1dfeR4HaWDbWqFHLkxsg1d"
				}
			],
			"durationMs": 27428,
			"isrc": "GBUM71403196",
			"ean": null,
			"upc": null,
			"href": "https://open.spotify.com/track/039Oo7Qq5xMK8diludANlg",
			"availableCountries": "AR,AU,AT,BE,BO,BR,BG,CL,CO,CR,CY,CZ,DK,DO,DE,EC,EE,SV,FI,FR,GR,GT,HN,HK,HU,IS,IE,IT,LV,LT,LU,MY,MT,MX,NL,NZ,NI,NO,PA,PY,PE,PH,PL,PT,SG,SK,ES,SE,CH,TW,TR,UY,GB,AD,LI,MC,ID,JP,TH,VN,RO,IL,ZA,SA,AE,BH,QA,OM,KW,EG,MA,DZ,TN,LB,JO,PS,IN,BY,KZ,MD,UA,AL,BA,HR,ME,MK,RS,SI,KR,PK,LK,GH,KE,NG,TZ,UG,AG,AM,BS,BB,BZ,BT,BW,BF,CV,CW,DM,FJ,GM,GD,GW,GY,JM,KI,LS,LR,MW,MV,ML,MH,FM,NA,NR,NE,PW,PG,WS,ST,SN,SC,SL,SB,KN,LC,VC,SR,TL,TO,TT,TV,AZ,BN,BI,KH,CM,TD,KM,GQ,SZ,GA,GN,KG,LA,MO,MR,MN,NP,RW,TG,UZ,ZW,BJ,MG,MU,MZ,AO,CI,DJ,ZM,CD,CG,IQ,LY,TJ,VE,XK",
			"popularity": 0
		},
		{
			"id": "e39e330c-67ea-42c6-a5ca-d3dc4d7b82b6",
			"trackTitle": "The Kiss - Early Version / March 1980",
			"artists": [
				{
					"id": "3dce03ac-93bc-4696-a6d6-fa8a579e3913",
					"name": "Queen",
					"href": "https://open.spotify.com/artist/1dfeR4HaWDbWqFHLkxsg1d"
				}
			],
			"durationMs": 71360,
			"isrc": "GBUM71103539",
			"ean": null,
			"upc": null,
			"href": "https://open.spotify.com/track/03FwTmAG3jj3ml58Vx4KIl",
			"availableCountries": "AR,AU,AT,BE,BO,BR,BG,CL,CO,CR,CY,CZ,DK,DO,DE,EC,EE,SV,FI,FR,GR,GT,HN,HK,HU,IS,IE,IT,LV,LT,LU,MY,MT,MX,NL,NZ,NI,NO,PA,PY,PE,PH,PL,PT,SG,SK,ES,SE,CH,TW,TR,UY,GB,AD,LI,MC,ID,JP,TH,VN,RO,IL,ZA,SA,AE,BH,QA,OM,KW,EG,MA,DZ,TN,LB,JO,PS,IN,BY,KZ,MD,UA,AL,BA,HR,ME,MK,RS,SI,KR,BD,PK,LK,GH,KE,NG,TZ,UG,AG,AM,BS,BB,BZ,BT,BW,BF,CV,CW,DM,FJ,GM,GD,GW,GY,HT,JM,KI,LS,LR,MW,MV,ML,MH,FM,NA,NR,NE,PW,PG,WS,ST,SN,SC,SL,SB,KN,LC,VC,SR,TL,TO,TT,TV,AZ,BN,BI,KH,CM,TD,KM,GQ,SZ,GA,GN,KG,LA,MO,MR,MN,NP,RW,TG,UZ,ZW,BJ,MG,MU,MZ,AO,CI,DJ,ZM,CD,CG,IQ,LY,TJ,VE,XK",
			"popularity": 16
		},
		{
			"id": "1430639a-0ce1-43f3-a410-f24264a1b245",
			"trackTitle": "We Will Rock You - Megan Thee Stallion Version",
			"artists": [
				{
					"id": "3dce03ac-93bc-4696-a6d6-fa8a579e3913",
					"name": "Queen",
					"href": "https://open.spotify.com/artist/1dfeR4HaWDbWqFHLkxsg1d"
				},
				{
					"id": "1971b860-aa96-4f83-a8b1-83c13deb40e2",
					"name": "Megan Thee Stallion",
					"href": "https://open.spotify.com/artist/181bsRPaVXVlUKXrxwZfHK"
				}
			],
			"durationMs": 103658,
			"isrc": "GBUM72403911",
			"ean": null,
			"upc": null,
			"href": "https://open.spotify.com/track/03NOVazYlKC9MReaZiBlyS",
			"availableCountries": "AR,AU,AT,BE,BO,BR,BG,CL,CO,CR,CY,CZ,DK,DO,DE,EC,EE,SV,FI,FR,GR,GT,HN,HK,HU,IS,IE,IT,LV,LT,LU,MY,MT,MX,NL,NZ,NI,NO,PA,PY,PE,PH,PL,PT,SG,SK,ES,SE,CH,TW,TR,UY,GB,AD,LI,MC,ID,JP,TH,VN,RO,IL,ZA,SA,AE,BH,QA,OM,KW,EG,MA,DZ,TN,LB,JO,PS,IN,KZ,MD,UA,AL,BA,HR,ME,MK,RS,SI,KR,BD,PK,LK,GH,KE,NG,TZ,UG,AG,AM,BS,BB,BZ,BT,BW,BF,CV,CW,DM,FJ,GM,GE,GD,GW,GY,HT,JM,KI,LS,LR,MW,MV,ML,MH,FM,NA,NR,NE,PW,PG,WS,SM,ST,SN,SC,SL,SB,KN,LC,VC,SR,TL,TO,TT,TV,VU,AZ,BN,BI,KH,CM,TD,KM,GQ,SZ,GA,GN,KG,LA,MO,MR,MN,NP,RW,TG,UZ,ZW,BJ,MG,MU,MZ,AO,CI,DJ,ZM,CD,CG,IQ,LY,TJ,VE,ET,XK",
			"popularity": 39
		},
		{
			"id": "204dfc16-d12f-428c-b628-5858bac4e6c0",
			"trackTitle": "Marriage Of Dale And Ming (And Flash Approaching) - Remastered 2011",
			"artists": [
				{
					"id": "3dce03ac-93bc-4696-a6d6-fa8a579e3913",
					"name": "Queen",
					"href": "https://open.spotify.com/artist/1dfeR4HaWDbWqFHLkxsg1d"
				}
			],
			"durationMs": 124280,
			"isrc": "GBUM71103360",
			"ean": null,
			"upc": null,
			"href": "https://open.spotify.com/track/03vfUuDeRsG6Q6BaJgDwuB",
			"availableCountries": "AR,AU,AT,BE,BO,BR,BG,CL,CO,CR,CY,CZ,DK,DO,DE,EC,EE,SV,FI,FR,GR,GT,HN,HK,HU,IS,IE,IT,LV,LT,LU,MY,MT,MX,NL,NZ,NI,NO,PA,PY,PE,PH,PL,PT,SG,SK,ES,SE,CH,TW,TR,UY,GB,AD,LI,MC,ID,JP,TH,VN,RO,IL,ZA,SA,AE,BH,QA,OM,KW,EG,MA,DZ,TN,LB,JO,PS,IN,BY,KZ,MD,UA,AL,BA,HR,ME,MK,RS,SI,KR,BD,PK,LK,GH,KE,NG,TZ,UG,AG,AM,BS,BB,BZ,BT,BW,BF,CV,CW,DM,FJ,GM,GD,GW,GY,HT,JM,KI,LS,LR,MW,MV,ML,MH,FM,NA,NR,NE,PW,PG,WS,ST,SN,SC,SL,SB,KN,LC,VC,SR,TL,TO,TT,TV,AZ,BN,BI,KH,CM,TD,KM,GQ,SZ,GA,GN,KG,LA,MO,MR,MN,NP,RW,TG,UZ,ZW,BJ,MG,MU,MZ,AO,CI,DJ,ZM,CD,CG,IQ,LY,TJ,VE,XK",
			"popularity": 14
		},
		{
			"id": "86f1a6c2-f6df-41c0-bc18-714942d4320b",
			"trackTitle": "Nevermore - Remastered 2011",
			"artists": [
				{
					"id": "3dce03ac-93bc-4696-a6d6-fa8a579e3913",
					"name": "Queen",
					"href": "https://open.spotify.com/artist/1dfeR4HaWDbWqFHLkxsg1d"
				}
			],
			"durationMs": 78666,
			"isrc": "GBUM71100501",
			"ean": null,
			"upc": null,
			"href": "https://open.spotify.com/track/04XOESV0aVnKMlUU1NhIG1",
			"availableCountries": "AR,AU,AT,BE,BO,BR,BG,CL,CO,CR,CY,CZ,DK,DO,DE,EC,EE,SV,FI,FR,GR,GT,HN,HK,HU,IS,IE,IT,LV,LT,LU,MY,MT,MX,NL,NZ,NI,NO,PA,PY,PE,PH,PL,PT,SG,SK,ES,SE,CH,TW,TR,UY,GB,AD,LI,MC,ID,JP,TH,VN,RO,IL,ZA,SA,AE,BH,QA,OM,KW,EG,DZ,TN,LB,JO,PS,IN,BY,KZ,MD,UA,AL,BA,HR,ME,MK,RS,SI,KR,BD,PK,LK,GH,KE,NG,TZ,UG,AG,AM,BS,BB,BZ,BT,BW,BF,CV,CW,DM,FJ,GM,GD,GW,GY,HT,JM,KI,LS,LR,MW,MV,ML,MH,FM,NA,NR,NE,PW,PG,WS,ST,SN,SC,SL,SB,KN,LC,VC,SR,TL,TO,TT,TV,AZ,BN,BI,KH,CM,TD,KM,GQ,SZ,GA,GN,KG,LA,MO,MR,MN,NP,RW,TG,UZ,ZW,BJ,MG,MU,MZ,AO,CI,DJ,ZM,CD,CG,TJ,VE,XK",
			"popularity": 32
		},
		{
			"id": "9de9fb1a-fc6b-4a30-bb40-861e121f7fda",
			"trackTitle": "My Life Has Been Saved - 1989 B-Side Version / Remastered 2011",
			"artists": [
				{
					"id": "3dce03ac-93bc-4696-a6d6-fa8a579e3913",
					"name": "Queen",
					"href": "https://open.spotify.com/artist/1dfeR4HaWDbWqFHLkxsg1d"
				}
			],
			"durationMs": 196280,
			"isrc": "GBUM71106613",
			"ean": null,
			"upc": null,
			"href": "https://open.spotify.com/track/05G30zfUMsXmyuS191WCtu",
			"availableCountries": "AR,AU,AT,BE,BO,BR,BG,CL,CO,CR,CY,CZ,DK,DO,DE,EC,EE,SV,FI,FR,GR,GT,HN,HK,HU,IS,IE,IT,LV,LT,LU,MY,MT,MX,NL,NZ,NI,NO,PA,PY,PE,PH,PL,PT,SG,SK,ES,SE,CH,TW,TR,UY,GB,AD,LI,MC,ID,JP,TH,VN,RO,IL,ZA,SA,AE,BH,QA,OM,KW,EG,MA,DZ,TN,LB,JO,PS,IN,KZ,MD,UA,AL,BA,HR,ME,MK,RS,SI,KR,BD,PK,LK,GH,KE,NG,TZ,UG,AG,AM,BS,BB,BZ,BT,BW,BF,CV,CW,DM,FJ,GM,GE,GD,GW,GY,HT,JM,KI,LS,LR,MW,MV,ML,MH,FM,NA,NR,NE,PW,PG,WS,SM,ST,SN,SC,SL,SB,KN,LC,VC,SR,TL,TO,TT,TV,VU,AZ,BN,BI,KH,CM,TD,KM,GQ,SZ,GA,GN,KG,LA,MO,MR,MN,NP,RW,TG,UZ,ZW,BJ,MG,MU,MZ,AO,CI,DJ,ZM,CD,CG,IQ,LY,TJ,VE,ET,XK",
			"popularity": 24
		},
		{
			"id": "4ff1d953-5f43-49bf-a8f3-607cbd7d0ed3",
			"trackTitle": "Now I'm Here - Live At The Hammersmith Odeon, London / 1975",
			"artists": [
				{
					"id": "3dce03ac-93bc-4696-a6d6-fa8a579e3913",
					"name": "Queen",
					"href": "https://open.spotify.com/artist/1dfeR4HaWDbWqFHLkxsg1d"
				}
			],
			"durationMs": 282813,
			"isrc": "GBUM71504416",
			"ean": null,
			"upc": null,
			"href": "https://open.spotify.com/track/05nm0oC1CtrK3dTasQnFlV",
			"availableCountries": "AR,AU,AT,BE,BO,BR,BG,CL,CO,CR,CY,CZ,DK,DO,DE,EC,EE,SV,FI,FR,GR,GT,HN,HK,HU,IS,IE,IT,LV,LT,LU,MY,MT,MX,NL,NZ,NI,NO,PA,PY,PE,PH,PL,PT,SG,SK,ES,SE,CH,TW,TR,UY,GB,AD,LI,MC,ID,JP,TH,VN,RO,IL,ZA,SA,AE,BH,QA,OM,KW,EG,MA,DZ,TN,LB,JO,PS,IN,BY,KZ,MD,UA,AL,BA,HR,ME,MK,RS,SI,KR,BD,PK,LK,GH,KE,NG,TZ,UG,AG,AM,BS,BB,BZ,BT,BW,BF,CV,CW,DM,FJ,GM,GE,GD,GW,GY,HT,JM,KI,LS,LR,MW,MV,ML,MH,FM,NA,NR,NE,PW,PG,WS,SM,ST,SN,SC,SL,SB,KN,LC,VC,SR,TL,TO,TT,TV,VU,AZ,BN,BI,KH,CM,TD,KM,GQ,SZ,GA,GN,KG,LA,MO,MR,MN,NP,RW,TG,UZ,ZW,BJ,MG,MU,MZ,AO,CI,DJ,ZM,CD,CG,IQ,LY,TJ,VE,ET,XK",
			"popularity": 22
		},
		{
			"id": "083e97d4-721b-4e60-bcee-e2ec9954a28a",
			"trackTitle": "Don't Try Suicide - Remastered 2011",
			"artists": [
				{
					"id": "3dce03ac-93bc-4696-a6d6-fa8a579e3913",
					"name": "Queen",
					"href": "https://open.spotify.com/artist/1dfeR4HaWDbWqFHLkxsg1d"
				}
			],
			"durationMs": 232120,
			"isrc": "GBUM71103485",
			"ean": null,
			"upc": null,
			"href": "https://open.spotify.com/track/05YFcqH3Wl6cYWD4NNvU4B",
			"availableCountries": "AR,AU,AT,BE,BO,BR,BG,CL,CO,CR,CY,CZ,DK,DO,DE,EC,EE,SV,FI,FR,GR,GT,HN,HK,HU,IS,IE,IT,LV,LT,LU,MY,MT,MX,NL,NZ,NI,NO,PA,PY,PE,PH,PL,PT,SG,SK,ES,SE,CH,TW,TR,UY,GB,AD,LI,MC,ID,JP,TH,VN,RO,IL,ZA,SA,AE,BH,QA,OM,KW,EG,MA,DZ,TN,LB,JO,PS,IN,BY,KZ,MD,UA,AL,BA,HR,ME,MK,RS,SI,KR,BD,PK,LK,GH,KE,NG,TZ,UG,AG,AM,BS,BB,BZ,BT,BW,BF,CV,CW,DM,FJ,GM,GD,GW,GY,HT,JM,KI,LS,LR,MW,MV,ML,MH,FM,NA,NR,NE,PW,PG,WS,ST,SN,SC,SL,SB,KN,LC,VC,SR,TL,TO,TT,TV,AZ,BN,BI,KH,CM,TD,KM,GQ,SZ,GA,GN,KG,LA,MO,MR,MN,NP,RW,TG,UZ,ZW,BJ,MG,MU,MZ,AO,CI,DJ,ZM,CD,CG,IQ,LY,TJ,VE,XK",
			"popularity": 29
		},
		{
			"id": "a49d5163-b8af-41ab-a986-fd9e0b35a481",
			"trackTitle": "In Only Seven Days - Remastered 2011",
			"artists": [
				{
					"id": "3dce03ac-93bc-4696-a6d6-fa8a579e3913",
					"name": "Queen",
					"href": "https://open.spotify.com/artist/1dfeR4HaWDbWqFHLkxsg1d"
				}
			],
			"durationMs": 149253,
			"isrc": "GBUM71103319",
			"ean": null,
			"upc": null,
			"href": "https://open.spotify.com/track/06UXtRLTF6kdMSM3uaVCCU",
			"availableCountries": "AR,AU,AT,BE,BO,BR,BG,CL,CO,CR,CY,CZ,DK,DO,DE,EC,EE,SV,FI,FR,GR,GT,HN,HK,HU,IS,IE,IT,LV,LT,LU,MY,MT,MX,NL,NZ,NI,NO,PA,PY,PE,PH,PL,PT,SG,SK,ES,SE,CH,TW,TR,UY,GB,AD,LI,MC,ID,JP,TH,VN,RO,IL,ZA,SA,AE,BH,QA,OM,KW,EG,MA,DZ,TN,LB,JO,PS,IN,BY,KZ,MD,UA,AL,BA,HR,ME,MK,RS,SI,KR,BD,PK,LK,GH,KE,NG,TZ,UG,AG,AM,BS,BB,BZ,BT,BW,BF,CV,CW,DM,FJ,GM,GD,GW,GY,HT,JM,KI,LS,LR,MW,MV,ML,MH,FM,NA,NR,NE,PW,PG,WS,ST,SN,SC,SL,SB,KN,LC,VC,SR,TL,TO,TT,TV,AZ,BN,BI,KH,CM,TD,KM,GQ,SZ,GA,GN,KG,LA,MO,MR,MN,NP,RW,TG,UZ,ZW,BJ,MG,MU,MZ,AO,CI,DJ,ZM,CD,CG,IQ,LY,TJ,VE,XK",
			"popularity": 36
		},
		{
			"id": "e09bf8f8-e19c-4362-936b-3ee7ee4706a8",
			"trackTitle": "Was It All Worth It - Remastered 2011",
			"artists": [
				{
					"id": "3dce03ac-93bc-4696-a6d6-fa8a579e3913",
					"name": "Queen",
					"href": "https://open.spotify.com/artist/1dfeR4HaWDbWqFHLkxsg1d"
				}
			],
			"durationMs": 345813,
			"isrc": "GBUM71106211",
			"ean": null,
			"upc": null,
			"href": "https://open.spotify.com/track/07BKIk0S2LsNdvGpxjyzKu",
			"availableCountries": "AR,AU,AT,BE,BO,BR,BG,CL,CO,CR,CY,CZ,DK,DO,DE,EC,EE,SV,FI,FR,GR,GT,HN,HK,HU,IS,IE,IT,LV,LT,LU,MY,MT,MX,NL,NZ,NI,NO,PA,PY,PE,PH,PL,PT,SG,SK,ES,SE,CH,TW,TR,UY,GB,AD,LI,MC,ID,JP,TH,VN,RO,IL,ZA,SA,AE,BH,QA,OM,KW,EG,MA,DZ,TN,LB,JO,PS,IN,BY,KZ,MD,UA,AL,BA,HR,ME,MK,RS,SI,KR,BD,PK,LK,GH,KE,NG,TZ,UG,AG,AM,BS,BB,BZ,BT,BW,BF,CV,CW,DM,FJ,GM,GD,GW,GY,HT,JM,KI,LS,LR,MW,MV,ML,MH,FM,NA,NR,NE,PW,PG,WS,ST,SN,SC,SL,SB,KN,LC,VC,SR,TL,TO,TT,TV,AZ,BN,BI,KH,CM,TD,KM,GQ,SZ,GA,GN,KG,LA,MO,MR,MN,NP,RW,TG,UZ,ZW,BJ,MG,MU,MZ,AO,CI,DJ,ZM,CD,CG,IQ,LY,TJ,VE,XK",
			"popularity": 7
		},
		{
			"id": "b24c83e4-f8ec-4b02-b0fa-a3e2db7049e5",
			"trackTitle": "Don't Stop Me Now - Remastered 2011",
			"artists": [
				{
					"id": "3dce03ac-93bc-4696-a6d6-fa8a579e3913",
					"name": "Queen",
					"href": "https://open.spotify.com/artist/1dfeR4HaWDbWqFHLkxsg1d"
				}
			],
			"durationMs": 210773,
			"isrc": "GBUM71029610",
			"ean": null,
			"upc": null,
			"href": "https://open.spotify.com/track/07Vvsu4HGrXmD6jAXWE4CK",
			"availableCountries": "AR,AU,AT,BE,BO,BR,BG,CL,CO,CR,CY,CZ,DK,DO,DE,EC,EE,SV,FI,FR,GR,GT,HN,HK,HU,IS,IE,IT,LV,LT,LU,MY,MT,MX,NL,NZ,NI,NO,PA,PY,PE,PH,PL,PT,SG,SK,ES,SE,CH,TW,TR,UY,GB,AD,LI,MC,ID,JP,TH,VN,RO,IL,ZA,SA,AE,BH,QA,OM,KW,EG,MA,DZ,TN,LB,JO,PS,IN,BY,KZ,MD,UA,AL,BA,HR,ME,MK,RS,SI,KR,BD,PK,LK,GH,KE,NG,TZ,UG,AG,AM,BS,BB,BZ,BT,BW,BF,CV,CW,DM,FJ,GM,GE,GD,GW,GY,HT,JM,KI,LS,LR,MW,MV,ML,MH,FM,NA,NR,NE,PW,PG,WS,SM,ST,SN,SC,SL,SB,KN,LC,VC,SR,TL,TO,TT,TV,VU,AZ,BN,BI,KH,CM,TD,KM,GQ,SZ,GA,GN,KG,LA,MO,MR,MN,NP,RW,TG,UZ,ZW,BJ,MG,MU,MZ,AO,CI,DJ,ZM,CD,CG,IQ,LY,TJ,VE,ET,XK",
			"popularity": 33
		},
		{
			"id": "3b6849b9-1b52-4a93-8740-eb2f72ff75fb",
			"trackTitle": "Radio Ga Ga - Live",
			"artists": [
				{
					"id": "3dce03ac-93bc-4696-a6d6-fa8a579e3913",
					"name": "Queen",
					"href": "https://open.spotify.com/artist/1dfeR4HaWDbWqFHLkxsg1d"
				}
			],
			"durationMs": 371826,
			"isrc": "GBUM71205816",
			"ean": null,
			"upc": null,
			"href": "https://open.spotify.com/track/08BXFggSQOyvvEwrNxFzwZ",
			"availableCountries": "AR,AU,AT,BE,BO,BR,BG,CL,CO,CR,CY,CZ,DK,DO,DE,EC,EE,SV,FI,FR,GR,GT,HN,HK,HU,IS,IE,IT,LV,LT,LU,MY,MT,MX,NL,NZ,NI,NO,PA,PY,PE,PH,PL,PT,SG,SK,ES,SE,CH,TW,TR,UY,GB,AD,LI,MC,ID,JP,TH,VN,RO,IL,ZA,SA,AE,BH,QA,OM,KW,EG,DZ,TN,LB,JO,PS,IN,BY,KZ,MD,UA,AL,BA,HR,ME,MK,RS,SI,KR,BD,PK,LK,GH,KE,NG,TZ,UG,AG,AM,BS,BB,BZ,BT,BW,BF,CV,CW,DM,FJ,GM,GD,GW,GY,HT,JM,KI,LS,LR,MW,MV,ML,MH,FM,NA,NR,NE,PW,PG,WS,ST,SN,SC,SL,SB,KN,LC,VC,SR,TL,TO,TT,TV,AZ,BN,BI,KH,CM,TD,KM,GQ,SZ,GA,GN,KG,LA,MO,MR,MN,NP,RW,TG,UZ,ZW,BJ,MG,MU,MZ,AO,CI,DJ,ZM,CD,CG,IQ,TJ,VE,XK",
			"popularity": 32
		},
		{
			"id": "23ed72bd-094f-4675-bae7-2c245e099da4",
			"trackTitle": "The Show Must Go On - Remastered 2011",
			"artists": [
				{
					"id": "3dce03ac-93bc-4696-a6d6-fa8a579e3913",
					"name": "Queen",
					"href": "https://open.spotify.com/artist/1dfeR4HaWDbWqFHLkxsg1d"
				}
			],
			"durationMs": 263626,
			"isrc": "GBUM71029636",
			"ean": null,
			"upc": null,
			"href": "https://open.spotify.com/track/08nOTU1hu4UtUKECe9FdA8",
			"availableCountries": "AR,AU,AT,BE,BO,BR,BG,CL,CO,CR,CY,CZ,DK,DO,DE,EC,EE,SV,FI,FR,GR,GT,HN,HK,HU,IS,IE,IT,LV,LT,LU,MY,MT,MX,NL,NZ,NI,NO,PA,PY,PE,PH,PL,PT,SG,SK,ES,SE,CH,TW,TR,UY,GB,AD,LI,MC,ID,JP,TH,VN,RO,IL,ZA,SA,AE,BH,QA,OM,KW,EG,MA,DZ,TN,LB,JO,PS,IN,BY,KZ,MD,UA,AL,BA,HR,ME,MK,RS,SI,KR,BD,PK,LK,GH,KE,NG,TZ,UG,AG,AM,BS,BB,BZ,BT,BW,BF,CV,CW,DM,FJ,GM,GD,GW,GY,HT,JM,KI,LS,LR,MW,MV,ML,MH,FM,NA,NR,NE,PW,PG,WS,ST,SN,SC,SL,SB,KN,LC,VC,SR,TL,TO,TT,TV,AZ,BN,BI,KH,CM,TD,KM,GQ,SZ,GA,GN,KG,LA,MO,MR,MN,NP,RW,TG,UZ,ZW,BJ,MG,MU,MZ,AO,CI,DJ,ZM,CD,CG,IQ,LY,TJ,VE,XK",
			"popularity": 39
		},
		{
			"id": "c1986123-750b-4712-bf9b-237f80995045",
			"trackTitle": "Love Of My Life - Live",
			"artists": [
				{
					"id": "3dce03ac-93bc-4696-a6d6-fa8a579e3913",
					"name": "Queen",
					"href": "https://open.spotify.com/artist/1dfeR4HaWDbWqFHLkxsg1d"
				}
			],
			"durationMs": 236573,
			"isrc": "GBCEE0700016",
			"ean": null,
			"upc": null,
			"href": "https://open.spotify.com/track/08Om4kly8Qc3a1eBOQlkee",
			"availableCountries": "AR,AU,AT,BE,BO,BR,BG,CL,CO,CR,CY,CZ,DK,DO,DE,EC,EE,SV,FI,FR,GR,GT,HN,HK,HU,IS,IE,IT,LV,LT,LU,MY,MT,MX,NL,NZ,NI,NO,PA,PY,PE,PH,PL,PT,SG,SK,ES,SE,CH,TW,TR,UY,GB,AD,LI,MC,ID,JP,TH,VN,RO,IL,ZA,SA,AE,BH,QA,OM,KW,EG,MA,DZ,TN,LB,JO,PS,IN,BY,KZ,MD,UA,AL,BA,HR,ME,MK,RS,SI,KR,BD,PK,LK,GH,KE,NG,TZ,UG,AG,AM,BS,BB,BZ,BT,BW,BF,CV,CW,DM,FJ,GM,GE,GD,GW,GY,HT,JM,KI,LS,LR,MW,MV,ML,MH,FM,NA,NR,NE,PW,PG,WS,SM,ST,SN,SC,SL,SB,KN,LC,VC,SR,TL,TO,TT,TV,VU,AZ,BN,BI,KH,CM,TD,KM,GQ,SZ,GA,GN,KG,LA,MO,MR,MN,NP,RW,TG,UZ,ZW,BJ,MG,MU,MZ,AO,CI,DJ,ZM,CD,CG,IQ,LY,TJ,VE,ET,XK",
			"popularity": 43
		},
		{
			"id": "19a21682-2fa4-4809-b48e-7e9f9e7649f0",
			"trackTitle": "It's Late - Remastered 2011",
			"artists": [
				{
					"id": "3dce03ac-93bc-4696-a6d6-fa8a579e3913",
					"name": "Queen",
					"href": "https://open.spotify.com/artist/1dfeR4HaWDbWqFHLkxsg1d"
				}
			],
			"durationMs": 386360,
			"isrc": "GBUM71103456",
			"ean": null,
			"upc": null,
			"href": "https://open.spotify.com/track/08xlLweLEvZYaKgD1SFhJc",
			"availableCountries": "AR,AU,AT,BE,BO,BR,BG,CL,CO,CR,CY,CZ,DK,DO,DE,EC,EE,SV,FI,FR,GR,GT,HN,HK,HU,IS,IE,IT,LV,LT,LU,MY,MT,MX,NL,NZ,NI,NO,PA,PY,PE,PH,PL,PT,SG,SK,ES,SE,CH,TW,TR,UY,GB,AD,LI,MC,ID,JP,TH,VN,RO,IL,ZA,SA,AE,BH,QA,OM,KW,EG,MA,DZ,TN,LB,JO,PS,IN,BY,KZ,MD,UA,AL,BA,HR,ME,MK,RS,SI,KR,BD,PK,LK,GH,KE,NG,TZ,UG,AG,AM,BS,BB,BZ,BT,BW,BF,CV,CW,DM,FJ,GM,GD,GW,GY,HT,JM,KI,LS,LR,MW,MV,ML,MH,FM,NA,NR,NE,PW,PG,WS,ST,SN,SC,SL,SB,KN,LC,VC,SR,TL,TO,TT,TV,AZ,BN,BI,KH,CM,TD,KM,GQ,SZ,GA,GN,KG,LA,MO,MR,MN,NP,RW,TG,UZ,ZW,BJ,MG,MU,MZ,AO,CI,DJ,ZM,CD,CG,IQ,LY,TJ,VE,XK",
			"popularity": 35
		},
		{
			"id": "6df26d1d-8d03-433f-a81a-0b32269e98d4",
			"trackTitle": "It's Late - Remastered 2011",
			"artists": [
				{
					"id": "3dce03ac-93bc-4696-a6d6-fa8a579e3913",
					"name": "Queen",
					"href": "https://open.spotify.com/artist/1dfeR4HaWDbWqFHLkxsg1d"
				}
			],
			"durationMs": 387546,
			"isrc": "GBUM71103456",
			"ean": null,
			"upc": null,
			"href": "https://open.spotify.com/track/0a5RrMOgnGFVGDBAultokc",
			"availableCountries": "AR,AU,AT,BE,BO,BR,BG,CL,CO,CR,CY,CZ,DK,DO,DE,EC,EE,SV,FI,FR,GR,GT,HN,HK,HU,IS,IE,IT,LV,LT,LU,MY,MT,MX,NL,NZ,NI,NO,PA,PY,PE,PH,PL,PT,SG,SK,ES,SE,CH,TW,TR,UY,GB,AD,LI,MC,ID,JP,TH,VN,RO,IL,ZA,SA,AE,BH,QA,OM,KW,EG,MA,DZ,TN,LB,JO,PS,IN,BY,KZ,MD,UA,AL,BA,HR,ME,MK,RS,SI,KR,BD,PK,LK,GH,KE,NG,TZ,UG,AG,AM,BS,BB,BZ,BT,BW,BF,CV,CW,DM,FJ,GM,GD,GW,GY,HT,JM,KI,LS,LR,MW,MV,ML,MH,FM,NA,NR,NE,PW,PG,WS,ST,SN,SC,SL,SB,KN,LC,VC,SR,TL,TO,TT,TV,AZ,BN,BI,KH,CM,TD,KM,GQ,SZ,GA,GN,KG,LA,MO,MR,MN,NP,RW,TG,UZ,ZW,BJ,MG,MU,MZ,AO,CI,DJ,ZM,CD,CG,IQ,LY,TJ,VE,XK",
			"popularity": 8
		},
		{
			"id": "30232b9c-a542-4751-a9c9-4cb11d957b33",
			"trackTitle": "The Loser In The End - Remastered 2011",
			"artists": [
				{
					"id": "3dce03ac-93bc-4696-a6d6-fa8a579e3913",
					"name": "Queen",
					"href": "https://open.spotify.com/artist/1dfeR4HaWDbWqFHLkxsg1d"
				}
			],
			"durationMs": 241186,
			"isrc": "GBUM71100510",
			"ean": null,
			"upc": null,
			"href": "https://open.spotify.com/track/0aMgyTZecfVmIlosDev8AP",
			"availableCountries": "AR,AU,AT,BE,BO,BR,BG,CL,CO,CR,CY,CZ,DK,DO,DE,EC,EE,SV,FI,FR,GR,GT,HN,HK,HU,IS,IE,IT,LV,LT,LU,MY,MT,MX,NL,NZ,NI,NO,PA,PY,PE,PH,PL,PT,SG,SK,ES,SE,CH,TW,TR,UY,GB,AD,LI,MC,ID,JP,TH,VN,RO,IL,ZA,SA,AE,BH,QA,OM,KW,EG,MA,DZ,TN,LB,JO,PS,IN,BY,KZ,MD,UA,AL,BA,HR,ME,MK,RS,SI,KR,BD,PK,LK,GH,KE,NG,TZ,UG,AG,AM,BS,BB,BZ,BT,BW,BF,CV,CW,DM,FJ,GM,GD,GW,GY,HT,JM,KI,LS,LR,MW,MV,ML,MH,FM,NA,NR,NE,PW,PG,WS,ST,SN,SC,SL,SB,KN,LC,VC,SR,TL,TO,TT,TV,AZ,BN,BI,KH,CM,TD,KM,GQ,SZ,GA,GN,KG,LA,MO,MR,MN,NP,RW,TG,UZ,ZW,BJ,MG,MU,MZ,AO,CI,DJ,ZM,CD,CG,IQ,LY,TJ,VE,XK",
			"popularity": 23
		},
		{
			"id": "36867097-6c14-4c3f-9da1-8ff11ca105e6",
			"trackTitle": "Let Me Entertain You - Live In Montreal / November 1981",
			"artists": [
				{
					"id": "3dce03ac-93bc-4696-a6d6-fa8a579e3913",
					"name": "Queen",
					"href": "https://open.spotify.com/artist/1dfeR4HaWDbWqFHLkxsg1d"
				}
			],
			"durationMs": 168560,
			"isrc": "GBUM71103527",
			"ean": null,
			"upc": null,
			"href": "https://open.spotify.com/track/0BAO6NrKJTQBGErVCm2nYO",
			"availableCountries": "AR,AU,AT,BE,BO,BR,BG,CL,CO,CR,CY,CZ,DK,DO,DE,EC,EE,SV,FI,FR,GR,GT,HN,HK,HU,IS,IE,IT,LV,LT,LU,MY,MT,MX,NL,NZ,NI,NO,PA,PY,PE,PH,PL,PT,SG,SK,ES,SE,CH,TW,TR,UY,GB,AD,LI,MC,ID,JP,TH,VN,RO,IL,ZA,SA,AE,BH,QA,OM,KW,EG,MA,DZ,TN,LB,JO,PS,IN,BY,KZ,MD,UA,AL,BA,HR,ME,MK,RS,SI,KR,BD,PK,LK,GH,KE,NG,TZ,UG,AG,AM,BS,BB,BZ,BT,BW,BF,CV,CW,DM,FJ,GM,GD,GW,GY,HT,JM,KI,LS,LR,MW,MV,ML,MH,FM,NA,NR,NE,PW,PG,WS,ST,SN,SC,SL,SB,KN,LC,VC,SR,TL,TO,TT,TV,AZ,BN,BI,KH,CM,TD,KM,GQ,SZ,GA,GN,KG,LA,MO,MR,MN,NP,RW,TG,UZ,ZW,BJ,MG,MU,MZ,AO,CI,DJ,ZM,CD,CG,IQ,LY,TJ,VE,XK",
			"popularity": 27
		},
		{
			"id": "3096d3aa-ef8b-4e25-a016-040b05b102a2",
			"trackTitle": "Somebody To Love - Live At The Isle Of Wight Festival, UK, 2016",
			"artists": [
				{
					"id": "3dce03ac-93bc-4696-a6d6-fa8a579e3913",
					"name": "Queen",
					"href": "https://open.spotify.com/artist/1dfeR4HaWDbWqFHLkxsg1d"
				},
				{
					"id": "0080eccd-ab35-4649-afa2-5135309d2c1d",
					"name": "Adam Lambert",
					"href": "https://open.spotify.com/artist/6prmLEyn4LfHlD9NnXWlf7"
				}
			],
			"durationMs": 358866,
			"isrc": "GBUM72004134",
			"ean": null,
			"upc": null,
			"href": "https://open.spotify.com/track/0bbv6aSL5rcjKCu9Aj2Xxa",
			"availableCountries": "AR,AU,AT,BE,BO,BR,BG,CL,CO,CR,CY,CZ,DK,DO,DE,EC,EE,SV,FI,FR,GR,GT,HN,HK,HU,IS,IE,IT,LV,LT,LU,MY,MT,MX,NL,NZ,NI,NO,PA,PY,PE,PH,PL,PT,SG,SK,ES,SE,CH,TW,TR,UY,GB,AD,LI,MC,ID,JP,TH,VN,RO,IL,ZA,SA,AE,BH,QA,OM,KW,EG,MA,DZ,TN,LB,JO,PS,IN,BY,KZ,MD,UA,AL,BA,HR,ME,MK,RS,SI,KR,BD,PK,LK,GH,KE,NG,TZ,UG,AG,AM,BS,BB,BZ,BT,BW,BF,CV,CW,DM,FJ,GM,GE,GD,GW,GY,HT,JM,KI,LS,LR,MW,MV,ML,MH,FM,NA,NR,NE,PW,PG,WS,SM,ST,SN,SC,SL,SB,KN,LC,VC,SR,TL,TO,TT,TV,VU,AZ,BN,BI,KH,CM,TD,KM,GQ,SZ,GA,GN,KG,LA,MO,MR,MN,NP,RW,TG,UZ,ZW,BJ,MG,MU,MZ,AO,CI,DJ,ZM,CD,CG,IQ,LY,TJ,VE,ET,XK",
			"popularity": 30
		}
	],
	"page": 0,
	"size": 25,
	"totalElements": 1092,
	"totalPages": 44
}
