{
	"content": [
		{
			"id": "6f2786b3-7d85-45a3-bcbc-5dd21fd429ee",
			"name": "Queens Road, Alan Reed",
			"href": "https://open.spotify.com/artist/7BPM8QP6YydUac6IhhwzjS"
		},
		{
			"id": "a1ebc292-e28d-438f-85fa-fc2e90da384c",
			"name": "Elise McQueen",
			"href": "https://open.spotify.com/artist/5EMZRBtkW7gdgNubSlJVXI"
		},
		{
			"id": "d067629e-c6c5-4ed0-bffa-279bd7ed5461",
			"name": "The Queen Guillotined",
			"href": "https://open.spotify.com/artist/7JlEsQrASVtaQaZNUnLkUc"
		},
		{
			"id": "7aff37e2-0c00-4a2a-b039-f145c9ffc08b",
			"name": "Viking Queen",
			"href": "https://open.spotify.com/artist/4h7Sbct5r6kGXzXn2Vuk40"
		},
		{
			"id": "154f27bd-d688-4403-89b1-8cb9f93c94bc",
			"name": "The Zawose Queens",
			"href": "https://open.spotify.com/artist/5e8d20rB9aHyqFJLHlu4QI"
		},
		{
			"id": "f602c1e7-7f9c-4011-9c76-bcf7a82767f3",
			"name": "Queen Ifrica",
			"href": "https://open.spotify.com/artist/5SK75gxwqKq5Zc1mdLfwv9"
		},
		{
			"id": "b88b7c50-f86e-4586-bb28-456047cbc09d",
			"name": "Tereza La Queen",
			"href": "https://open.spotify.com/artist/3kIePvIysySSonL7Z9HmaN"
		},
		{
			"id": "97a01bb2-28b4-43f3-8ed0-2193c80d78ac",
			"name": "Queen",
			"href": "https://open.spotify.com/artist/6QWuYtzBkQ2Re44gRxaB2e"
		},
		{
			"id": "0f0182f6-8d33-47ab-85ea-2b0740f3019e",
			"name": "I Killed The Prom Queen",
			"href": "https://open.spotify.com/artist/3DY26PgCL4tKVUPQBtBWei"
		},
		{
			"id": "19852da8-7ede-4548-8026-00a522dc35ba",
			"name": "Locoqueen",
			"href": "https://open.spotify.com/artist/7jhLlnKEF5To0S5TDjbBQz"
		},
		{
			"id": "2e80b21d-6f64-4eda-8fc0-dfb3281de370",
			"name": "queen AaMinah",
			"href": "https://open.spotify.com/artist/3bXIAIDa6owpSL0ck3L1Mc"
		},
		{
			"id": "020cfdfc-f4a0-4b6e-882e-d759f7fb500e",
			"name": "Splattaqueen",
			"href": "https://open.spotify.com/artist/76ACdensEd0TYyWtdEQ6MM"
		},
		{
			"id": "c4546f0e-c9f4-4cb1-bc11-35a82863ded8",
			"name": "Lazy Queen",
			"href": "https://open.spotify.com/artist/1U9zqBUEcScanms647YanK"
		},
		{
			"id": "b03fb555-3358-4197-9866-edba8266e4e7",
			"name": "Amaka Queenette",
			"href": "https://open.spotify.com/artist/7eYEOXDWwUBvBUD8BpRFuv"
		},
		{
			"id": "d1c21082-cbfa-4875-ad0f-33d5ecde07ce",
			"name": "Calico Queen",
			"href": "https://open.spotify.com/artist/6IElB7hxRlwphlwxuRRj6A"
		},
		{
			"id": "b301923a-a82c-4f86-b7e0-a2f00da4e508",
			"name": "Queen Amina",
			"href": "https://open.spotify.com/artist/09ZaKBzi0PJnSC3aVvleq1"
		},
		{
			"id": "db0a7eb9-d4f2-4126-8cd9-3386433ae371",
			"name": "Queen Suitcase",
			"href": "https://open.spotify.com/artist/0UaZ2BhteWRHOjZo7lEDXj"
		},
		{
			"id": "8a8151c1-8490-4e83-bad4-79e0690e8c2f",
			"name": "KillaQueenz",
			"href": "https://open.spotify.com/artist/3tR6QVgdY69FHTScbtVMnT"
		},
		{
			"id": "0ca69cdd-b071-4d38-8856-a9411ed75864",
			"name": "Bob the Drag Queen",
			"href": "https://open.spotify.com/artist/71WL5bNm5jPPpwpDcW3Icj"
		},
		{
			"id": "c07aa914-76a9-44c5-b09a-2e195cc49d11",
			"name": "Flop Queen",
			"href": "https://open.spotify.com/artist/2sMKi0mnab1ZdzgSJU5PfX"
		},
		{
			"id": "875a069e-5bee-498f-927c-cef76915bec2",
			"name": "Queen Samantha",
			"href": "https://open.spotify.com/artist/2wCibR1juwlLNht9ZcqzeQ"
		},
		{
			"id": "8afe27f8-c372-41fb-9721-14de14d82870",
			"name": "Opera Queensland Chorus",
			"href": "https://open.spotify.com/artist/7gvnO5BOGlDeASfSBOLDX3"
		},
		{
			"id": "33dff55f-dabb-4cf8-b06e-b58b8238d6c1",
			"name": "Queen B",
			"href": "https://open.spotify.com/artist/4ZCX817nkTRgaGSYFVKfW6"
		},
		{
			"id": "1b6eeba5-6960-4f6d-b9fc-f2547fe5bf45",
			"name": "Mandrax Queen",
			"href": "https://open.spotify.com/artist/5FV2HMcCt7yanH44qCaRgq"
		},
		{
			"id": "e0fa5181-fff0-4f94-bbb6-e987bf04cb65",
			"name": "Desi Queen",
			"href": "https://open.spotify.com/artist/1UbTWm0ssCUlFBRQmqF7kc"
		},
		{
			"id": "6f7fcb8a-a0a2-4cb4-9a7d-99cd3b2d68a1",
			"name": "Safira the Queen",
			"href": "https://open.spotify.com/artist/77a0YxMrnlgvlIwfU0Prt7"
		},
		{
			"id": "9a8f70df-e994-4d34-b07b-cf29dc1f7a1a",
			"name": "Queen Clezzlo",
			"href": "https://open.spotify.com/artist/3g5Q6PZy0BuwJALfWPWGBJ"
		},
		{
			"id": "8078000d-bae0-495d-8bd8-29d36ce39a43",
			"name": "Queen Esther",
			"href": "https://open.spotify.com/artist/6ooqN3BvDcgMtZvnkSFitZ"
		},
		{
			"id": "83ef04fa-b101-42c7-b009-db366e84a124",
			"name": "Queen Bee",
			"href": "https://open.spotify.com/artist/31H7jkHn502Qrh12FGTbld"
		},
		{
			"id": "7d1a8529-00ac-4ca8-9e08-a231c9857749",
			"name": "Queen Cult",
			"href": "https://open.spotify.com/artist/3UAgcbjWTEC0xcEZEYNrQt"
		},
		{
			"id": "884e8407-4885-4bd0-8018-d56fa1f228da",
			"name": "Alvin Queen Trio",
			"href": "https://open.spotify.com/artist/2MLgaIZV5F0JbvAu45tx3F"
		},
		{
			"id": "0915c4e1-45ec-4956-bf8f-0bde4908d664",
			"name": "Queenie Moet",
			"href": "https://open.spotify.com/artist/5wJHj3JVlFK8WgaIPfFret"
		},
		{
			"id": "79ac2cad-5aa5-4ed3-bcde-92c941562fc3",
			"name": "Voodoo Queens",
			"href": "https://open.spotify.com/artist/713dOrzih7UQvUmok0Hft4"
		},
		{
			"id": "0f29def5-8a22-43a1-b5c4-aa51783bb5b4",
			"name": "Kings and Queens",
			"href": "https://open.spotify.com/artist/4BNt21UQqaoTwdVNZyL9dn"
		},
		{
			"id": "0d19b2ed-77c7-4eca-8cc8-18f0770cb0c1",
			"name": "Queen City Kids",
			"href": "https://open.spotify.com/artist/4vRHUz8y0ak4fJz3yANiIR"
		},
		{
			"id": "c75388cf-27a8-4497-ae67-455425dfa408",
			"name": "Sam McQueen",
			"href": "https://open.spotify.com/artist/1tvkKnBPJsdRXLVopldkJY"
		},
		{
			"id": "7d0cbfa9-a842-42fe-b0cb-698f5173e057",
			"name": "QUEENPHONK",
			"href": "https://open.spotify.com/artist/6swRzgmxLFXaBb7w3QnQBe"
		},
		{
			"id": "129dc8bb-d367-48a5-aaee-dfbd7b60a409",
			"name": "Culture Queen",
			"href": "https://open.spotify.com/artist/4IfGc40LRbnwom32WYBhJs"
		},
		{
			"id": "a9c8f79c-cf43-40eb-a969-6b1ff05e9fa7",
			"name": "Eddie Queen",
			"href": "https://open.spotify.com/artist/2ZaIBAExs79FDcp0gySreE"
		},
		{
			"id": "dc5609d7-3ee1-4bc9-bf27-8c079567ee14",
			"name": "Queen B",
			"href": "https://open.spotify.com/artist/1COXqDpvJfopEqWvEHeF8y"
		},
		{
			"id": "90071971-6c5c-4917-93f0-1f3f65579b16",
			"name": "The Black Queen",
			"href": "https://open.spotify.com/artist/3j2DZTwQle72CWyB19B5Mq"
		},
		{
			"id": "5959952a-c083-4bea-a856-f4503fa60dc5",
			"name": "QUEENDOM",
			"href": "https://open.spotify.com/artist/7n5AyMXmeRYTxEjG8JaLuS"
		},
		{
			"id": "4e6f018d-a4fc-4f8a-8f42-a082c476ca53",
			"name": "Queen de Saba",
			"href": "https://open.spotify.com/artist/3iOv8fH66tUIlsKpIjQdBt"
		},
		{
			"id": "94a68546-3516-4036-856b-93094902f4e3",
			"name": "The String Queen",
			"href": "https://open.spotify.com/artist/6OFdz5Cu51KdrPbnx8C47s"
		},
		{
			"id": "30d4dbc9-d708-44e4-9bfd-1f8300b4cf6d",
			"name": "Emmanuel McQueen and chorus",
			"href": "https://open.spotify.com/artist/1hJaZx3v0eHoUCM9mfp57y"
		},
		{
			"id": "5718dd6c-c732-42c6-b8c6-dca191a3ba43",
			"name": "Queensland Symphony Orchestra",
			"href": "https://open.spotify.com/artist/1VigEGpnDC5m1JGV2eorxS"
		},
		{
			"id": "54fb0dae-97bb-4376-a1c5-5cb9e4bca3cd",
			"name": "QUEEN PHEENA",
			"href": "https://open.spotify.com/artist/4teFhiieIBFIA49FqfeZIx"
		},
		{
			"id": "5d17b3e1-638b-49b4-83ac-41859ee07454",
			"name": "Queens Cast",
			"href": "https://open.spotify.com/artist/3Wr7oIlbc44t0Cek1VIg5D"
		},
		{
			"id": "a5f6fc3b-f672-4d80-a37f-e61706e34625",
			"name": "Anqueeno",
			"href": "https://open.spotify.com/artist/5kCOW3a63UKbZY86mS5Q8V"
		},
		{
			"id": "dd17ad36-9471-40b2-9bc0-f302cd852317",
			"name": "Cleo Ice Queen",
			"href": "https://open.spotify.com/artist/5Tp5Ioe5w2WmxJa4fvs7Gs"
		}
	],
	"page": 2,
	"size": 50,
	"totalElements": 965,
	"totalPages": 20
}
